1.18 기능테스트(송도연구소)
 - 11:40 기능테스트 시작
 - 초기에 문제 발생 후, 해결 안되어 17:00 케바코리아 사무실로 이동.
 - 결과적으로 지명구과장 프로그램 버전 문제로 확인함.

1.19 기능테스트(송도연구소)
 - 오전 중 방문예정하여 같이 테스트 진행하기로 함.
 - 당일 케바본사 미팅으로인해 방문안한다는 통보

1.20 기능테스트(송도연구소)
 - 방문 후 기능테스트 진행 X

1.22 기능테스트(송도연구소)
 - 09:00 방문예정
 - 늦잠으로 인해 10:00 도착예정
 - 10:35 도착
 - viewedit 에러 메시지 관련 문의 : 답변없음

1.27 대응
 - viewedit 에러 메시지 관련 재문의
 - 잘모르겠다고함.

1.28 케바본사 미팅
 - 송도연구소 방문 예정
 - 오후에 눈이 온다하여 자택에서 미팅 진행

2.02 송도연구소
 - 09:30~10:00 사이 송도연구소 도착예정
 - 10:10 미도착
 - 10:47 도착확인 

2.04 케바본사 미팅 및 정기회의 (송도 연구소)
 - 09:00 도착예정 및 09:30에 송도연구소 실험실에서 ls관련 미팅 진행하기로함.
 - 08:53 ls미팅 후 송도연구소로 이동하겠다는 통보
 - 15:00 케바본사 미팅 지연
 - 15:25 케바본사 미팅 시작

2.09 한양본사 방문
 - 13:30즈음 한양본사 도착
 - 13:51 점심식사하러 외출
 - 14:30 연락됨.
방문 이유 : cp263, cp505 퍼포먼스 테스트


2.10 송도연구소 방문 예정
 - 10:00 출발 예정
 - 10:26 출발 안했다는 내용 회신
 - 14:13 금일 방문 안한다는 유선통화